{
  "variables": {
    "aws_access_key": "",
    "aws_secret_key": ""
  },
  "builders": [{
    "type": "amazon-ebs",
    "region": "us-east-1",
    "source_ami": "ami-04681a1dbd79675a5",
    "instance_type": "t2.micro",
    "ssh_username": "ec2-user",
	"vpc_id": "vpc-03d04803c1ee05196",
	"subnet_id": "subnet-0936455d3e6fe3085",
    "ami_name": "packer-firstdemo {{timestamp}}"
  }]
 
 
}
